sim/mips5/waves.vcd
$date
  Sat Oct  4 22:13:55 2025
$end
$version
  GHDL v0
$end
$timescale
  1 fs
$end
$scope module standard $end
$upscope $end
$scope module std_logic_1164 $end
$upscope $end
$scope module numeric_std $end
$upscope $end
$scope module pkg_types $end
$upscope $end
$scope module tb_core_mips5 $end
$var reg 1 ! clk $end
$var reg 1 " rst $end
$var reg 32 # dbg_r6[31:0] $end
$scope module dut $end
$var reg 1 $ clk $end
$var reg 1 % rst $end
$var reg 32 & dbg_r6[31:0] $end
$var reg 32 ' pc[31:0] $end
$var reg 32 ( imem_rdata[31:0] $end
$var reg 32 ) ifid_pc[31:0] $end
$var reg 32 * ifid_instr[31:0] $end
$var reg 1 + ifid_valid $end
$var reg 32 , id_pc[31:0] $end
$var reg 32 - id_instr[31:0] $end
$var reg 1 . id_valid $end
$var reg 5 / rs_addr[4:0] $end
$var reg 5 0 rt_addr[4:0] $end
$var reg 32 1 rs_data[31:0] $end
$var reg 32 2 rt_data[31:0] $end
$var reg 32 3 id_rs_val[31:0] $end
$var reg 32 4 id_rt_val[31:0] $end
$comment c_alu_op is not handled $end
$var reg 1 5 c_reg_dst $end
$var reg 1 6 c_reg_we $end
$var reg 1 7 c_alu_src $end
$var reg 1 8 c_m2r $end
$comment c_mem_cmd is not handled $end
$var reg 32 9 idex_rs_data[31:0] $end
$var reg 32 : idex_rt_data[31:0] $end
$var reg 32 ; idex_imm_sext[31:0] $end
$var reg 1 < idex_reg_dst $end
$var reg 1 = idex_reg_we $end
$var reg 1 > idex_alu_src $end
$var reg 1 ? idex_m2r $end
$comment idex_mem_cmd is not handled $end
$comment idex_alu_op is not handled $end
$var reg 5 @ idex_rs_addr[4:0] $end
$var reg 5 A idex_rt_addr[4:0] $end
$var reg 5 B idex_rd_addr[4:0] $end
$var reg 32 C ex_alu_y[31:0] $end
$var reg 32 D ex_rt_pass[31:0] $end
$var reg 32 E exmem_alu_y[31:0] $end
$var reg 32 F exmem_store_d[31:0] $end
$var reg 5 G exmem_rd[4:0] $end
$var reg 1 H exmem_we $end
$comment exmem_mem_cmd is not handled $end
$var reg 1 I exmem_m2r $end
$var reg 32 J mem_out_data[31:0] $end
$var reg 32 K d_addr[31:0] $end
$var reg 32 L d_wdata[31:0] $end
$var reg 32 M d_rdata[31:0] $end
$var reg 1 N d_we $end
$var reg 32 O memwb_alu_y[31:0] $end
$var reg 32 P memwb_memout[31:0] $end
$var reg 5 Q memwb_rd[4:0] $end
$var reg 1 R memwb_we $end
$var reg 1 S memwb_m2r $end
$var reg 2 T fwd_a_sel[1:0] $end
$var reg 2 U fwd_b_sel[1:0] $end
$var reg 1 V stall_if $end
$var reg 1 W stall_id $end
$var reg 1 X flush_ex $end
$var reg 5 Y rf_waddr[4:0] $end
$var reg 32 Z rf_wdata[31:0] $end
$var reg 1 [ rf_we $end
$var reg 32 \ r6_value[31:0] $end
$scope module u_ctl $end
$var reg 32 ] instr[31:0] $end
$var reg 1 ^ reg_dst $end
$var reg 1 _ alu_src $end
$var reg 1 ` mem_to_reg $end
$var reg 1 a reg_we $end
$comment mem_cmd is not handled $end
$comment alu_op is not handled $end
$upscope $end
$scope module regfile_inst $end
$var reg 1 b clk $end
$var reg 1 c we $end
$var reg 5 d waddr[4:0] $end
$var reg 32 e wdata[31:0] $end
$var reg 5 f raddr1[4:0] $end
$var reg 5 g raddr2[4:0] $end
$var reg 32 h rdata1[31:0] $end
$var reg 32 i rdata2[31:0] $end
$comment regs is not handled $end
$upscope $end
$scope module hazard $end
$var reg 32 j ifid_instr[31:0] $end
$var reg 5 k idex_rt[4:0] $end
$comment idex_mem_cmd is not handled $end
$var reg 1 l stall_if $end
$var reg 1 m stall_id $end
$var reg 1 n flush_ex $end
$var reg 5 o id_rs[4:0] $end
$var reg 5 p id_rt[4:0] $end
$var reg 1 q load_use $end
$upscope $end
$scope module fwd $end
$var reg 5 r idex_rs[4:0] $end
$var reg 5 s idex_rt[4:0] $end
$var reg 5 t exmem_rd[4:0] $end
$var reg 5 u memwb_rd[4:0] $end
$var reg 1 v exmem_we $end
$var reg 1 w memwb_we $end
$var reg 2 x fwd_a_sel[1:0] $end
$var reg 2 y fwd_b_sel[1:0] $end
$upscope $end
$scope module ex $end
$var reg 1 z clk $end
$var reg 1 { rst $end
$var reg 32 | id_rs_val[31:0] $end
$var reg 32 } id_rt_val[31:0] $end
$var reg 32 !" imm_sext[31:0] $end
$var reg 32 "" exmem_val[31:0] $end
$var reg 32 #" memwb_val[31:0] $end
$var reg 1 $" alu_src $end
$comment alu_op is not handled $end
$var reg 2 %" fwd_a_sel[1:0] $end
$var reg 2 &" fwd_b_sel[1:0] $end
$var reg 32 '" alu_y[31:0] $end
$var reg 32 (" store_d[31:0] $end
$var reg 32 )" a_fwd[31:0] $end
$var reg 32 *" b_fwd[31:0] $end
$var reg 32 +" b_alu[31:0] $end
$var reg 32 ," r[31:0] $end
$upscope $end
$scope module mem $end
$var reg 1 -" clk $end
$comment mem_cmd is not handled $end
$var reg 32 ." addr[31:0] $end
$var reg 32 /" wdata[31:0] $end
$var reg 32 0" dmem_rdata[31:0] $end
$var reg 32 1" dmem_addr[31:0] $end
$var reg 32 2" dmem_wdata[31:0] $end
$var reg 1 3" dmem_we $end
$var reg 32 4" mem_out[31:0] $end
$upscope $end
$scope module dmem $end
$var reg 32 5" a_addr[31:0] $end
$var reg 32 6" a_rdata[31:0] $end
$var reg 1 7" clk $end
$var reg 1 8" b_we $end
$var reg 32 9" b_addr[31:0] $end
$var reg 32 :" b_wdata[31:0] $end
$var reg 32 ;" b_rdata[31:0] $end
$comment mem is not handled $end
$upscope $end
$scope module wb $end
$var reg 1 <" mem_to_reg $end
$var reg 32 =" alu_y[31:0] $end
$var reg 32 >" mem_data[31:0] $end
$var reg 32 ?" wb_data[31:0] $end
$upscope $end
$upscope $end
$upscope $end
$enddefinitions $end
#0
0!
1"
b00000000000000000000000000000000 #
0$
1%
b00000000000000000000000000000000 &
b00000000000000000000000000000000 '
b00100000000000010000000000000001 (
b00000000000000000000000000000000 )
b00000000000000000000000000000000 *
0+
b00000000000000000000000000000000 ,
b00000000000000000000000000000000 -
0.
b00000 /
b00000 0
b00000000000000000000000000000000 1
b00000000000000000000000000000000 2
b00000000000000000000000000000000 3
b00000000000000000000000000000000 4
15
16
07
08
bUUUUUUUUUUUUUUUUUUUUUUUUUUUUUUUU 9
bUUUUUUUUUUUUUUUUUUUUUUUUUUUUUUUU :
bUUUUUUUUUUUUUUUUUUUUUUUUUUUUUUUU ;
U<
U=
U>
U?
bUUUUU @
bUUUUU A
bUUUUU B
bXXXXXXXXXXXXXXXXXXXXXXXXXXXXXXXX C
bUUUUUUUUUUUUUUUUUUUUUUUUUUUUUUUU D
bUUUUUUUUUUUUUUUUUUUUUUUUUUUUUUUU E
bUUUUUUUUUUUUUUUUUUUUUUUUUUUUUUUU F
bUUUUU G
UH
UI
b00000000000000000000000000000000 J
bUUUUUUUUUUUUUUUUUUUUUUUUUUUUUUUU K
bUUUUUUUUUUUUUUUUUUUUUUUUUUUUUUUU L
b00000000000000000000000000000000 M
0N
bUUUUUUUUUUUUUUUUUUUUUUUUUUUUUUUU O
bUUUUUUUUUUUUUUUUUUUUUUUUUUUUUUUU P
bUUUUU Q
UR
US
b00 T
b00 U
0V
0W
0X
bUUUUU Y
bUUUUUUUUUUUUUUUUUUUUUUUUUUUUUUUU Z
U[
b00000000000000000000000000000000 \
b00000000000000000000000000000000 ]
1^
0_
0`
1a
0b
Uc
bUUUUU d
bUUUUUUUUUUUUUUUUUUUUUUUUUUUUUUUU e
b00000 f
b00000 g
b00000000000000000000000000000000 h
b00000000000000000000000000000000 i
b00000000000000000000000000000000 j
bUUUUU k
0l
0m
0n
b00000 o
b00000 p
0q
bUUUUU r
bUUUUU s
bUUUUU t
bUUUUU u
Uv
Uw
b00 x
b00 y
0z
1{
bUUUUUUUUUUUUUUUUUUUUUUUUUUUUUUUU |
bUUUUUUUUUUUUUUUUUUUUUUUUUUUUUUUU }
bUUUUUUUUUUUUUUUUUUUUUUUUUUUUUUUU !"
bUUUUUUUUUUUUUUUUUUUUUUUUUUUUUUUU ""
bUUUUUUUUUUUUUUUUUUUUUUUUUUUUUUUU #"
U$"
b00 %"
b00 &"
bXXXXXXXXXXXXXXXXXXXXXXXXXXXXXXXX '"
bUUUUUUUUUUUUUUUUUUUUUUUUUUUUUUUU ("
bUUUUUUUUUUUUUUUUUUUUUUUUUUUUUUUU )"
bUUUUUUUUUUUUUUUUUUUUUUUUUUUUUUUU *"
bUUUUUUUUUUUUUUUUUUUUUUUUUUUUUUUU +"
bXXXXXXXXXXXXXXXXXXXXXXXXXXXXXXXX ,"
0-"
bUUUUUUUUUUUUUUUUUUUUUUUUUUUUUUUU ."
bUUUUUUUUUUUUUUUUUUUUUUUUUUUUUUUU /"
b00000000000000000000000000000000 0"
bUUUUUUUUUUUUUUUUUUUUUUUUUUUUUUUU 1"
bUUUUUUUUUUUUUUUUUUUUUUUUUUUUUUUU 2"
03"
b00000000000000000000000000000000 4"
b00000000000000000000000000000000 5"
b00000000000000000000000000000000 6"
07"
08"
bUUUUUUUUUUUUUUUUUUUUUUUUUUUUUUUU 9"
bUUUUUUUUUUUUUUUUUUUUUUUUUUUUUUUU :"
b00000000000000000000000000000000 ;"
U<"
bUUUUUUUUUUUUUUUUUUUUUUUUUUUUUUUU ="
bUUUUUUUUUUUUUUUUUUUUUUUUUUUUUUUU >"
bUUUUUUUUUUUUUUUUUUUUUUUUUUUUUUUU ?"
#5000000
1!
1$
b00000000000000000000000000000000 9
b00000000000000000000000000000000 :
b00000000000000000000000000000000 ;
0<
0=
0>
0?
b00000 @
b00000 A
b00000 B
b00000000000000000000000000000000 C
b00000000000000000000000000000000 D
b00000000000000000000000000000000 E
b00000000000000000000000000000000 F
b00000 G
0H
0I
b00000000000000000000000000000000 K
b00000000000000000000000000000000 L
b00000000000000000000000000000000 O
b00000000000000000000000000000000 P
b00000 Q
0R
0S
b00000 Y
b00000000000000000000000000000000 Z
0[
1b
0c
b00000 d
b00000000000000000000000000000000 e
b00000 k
b00000 r
b00000 s
b00000 t
b00000 u
0v
0w
1z
b00000000000000000000000000000000 |
b00000000000000000000000000000000 }
b00000000000000000000000000000000 !"
b00000000000000000000000000000000 ""
b00000000000000000000000000000000 #"
0$"
b00000000000000000000000000000000 '"
b00000000000000000000000000000000 ("
b00000000000000000000000000000000 )"
b00000000000000000000000000000000 *"
b00000000000000000000000000000000 +"
b00000000000000000000000000000000 ,"
1-"
b00000000000000000000000000000000 ."
b00000000000000000000000000000000 /"
b00000000000000000000000000000000 1"
b00000000000000000000000000000000 2"
17"
b00000000000000000000000000000000 9"
b00000000000000000000000000000000 :"
0<"
b00000000000000000000000000000000 ="
b00000000000000000000000000000000 >"
b00000000000000000000000000000000 ?"
#10000000
0!
0$
0b
0z
0-"
07"
#15000000
1!
1$
1b
1z
1-"
17"
#20000000
0!
0$
0b
0z
0-"
07"
#25000000
1!
1$
1b
1z
1-"
17"
#30000000
0!
0$
0b
0z
0-"
07"
#35000000
1!
1$
1b
1z
1-"
17"
#40000000
0!
0"
0$
0%
0b
0z
0{
0-"
07"
#45000000
1!
1$
b00000000000000000000000000000100 '
b00100000000000100000000000000010 (
b00100000000000010000000000000001 *
1+
b00100000000000010000000000000001 -
1.
b00001 0
05
17
1<
1=
b00100000000000010000000000000001 ]
0^
1_
1a
1b
b00001 g
b00100000000000010000000000000001 j
b00001 p
1z
1-"
17"
#50000000
0!
0$
0b
0z
0-"
07"
#55000000
1!
1$
b00000000000000000000000000001000 '
b00100000000000110000000000000011 (
b00000000000000000000000000000100 )
b00100000000000100000000000000010 *
b00000000000000000000000000000100 ,
b00100000000000100000000000000010 -
b00010 0
b00000000000000000000000000000001 ;
0<
1>
b00001 A
b00000000000000000000000000000001 C
1H
b00100000000000100000000000000010 ]
1_
1a
1b
b00010 g
b00100000000000100000000000000010 j
b00001 k
b00010 p
b00001 s
1v
1z
b00000000000000000000000000000001 !"
1$"
b00000000000000000000000000000001 '"
b00000000000000000000000000000001 +"
b00000000000000000000000000000001 ,"
1-"
17"
#60000000
0!
0$
0b
0z
0-"
07"
#65000000
1!
1$
b00000000000000000000000000001100 '
b00000000001000100010000000100000 (
b00000000000000000000000000001000 )
b00100000000000110000000000000011 *
b00000000000000000000000000001000 ,
b00100000000000110000000000000011 -
b00011 0
b00000000000000000000000000000010 ;
b00010 A
b00000000000000000000000000000010 C
b00000000000000000000000000000001 E
b00001 G
b00000000000000000000000000000001 K
1R
1[
b00100000000000110000000000000011 ]
1_
1a
1b
1c
b00011 g
b00100000000000110000000000000011 j
b00010 k
b00011 p
b00010 s
b00001 t
1w
1z
b00000000000000000000000000000010 !"
b00000000000000000000000000000001 ""
b00000000000000000000000000000010 '"
b00000000000000000000000000000010 +"
b00000000000000000000000000000010 ,"
1-"
b00000000000000000000000000000001 ."
b00000000000000000000000000000001 1"
17"
b00000000000000000000000000000001 9"
#70000000
0!
0$
0b
0z
0-"
07"
#75000000
1!
1$
b00000000000000000000000000010000 '
b00000000100000110010000000100000 (
b00000000000000000000000000001100 )
b00000000001000100010000000100000 *
b00000000000000000000000000001100 ,
b00000000001000100010000000100000 -
b00001 /
b00010 0
b00000000000000000000000000000001 3
15
07
b00000000000000000000000000000011 ;
b00011 A
b00000000000000000000000000000011 C
b00000000000000000000000000000010 E
b00010 G
b00000000000000000000000000000010 K
b00000000000000000000000000000001 O
b00001 Q
b00001 Y
b00000000000000000000000000000001 Z
b00000000001000100010000000100000 ]
1^
0_
1a
1b
b00001 d
b00000000000000000000000000000001 e
b00001 f
b00010 g
b00000000001000100010000000100000 j
b00011 k
b00001 o
b00010 p
b00011 s
b00010 t
b00001 u
1z
b00000000000000000000000000000011 !"
b00000000000000000000000000000010 ""
b00000000000000000000000000000001 #"
b00000000000000000000000000000011 '"
b00000000000000000000000000000011 +"
b00000000000000000000000000000011 ,"
1-"
b00000000000000000000000000000010 ."
b00000000000000000000000000000010 1"
17"
b00000000000000000000000000000010 9"
b00000000000000000000000000000001 ="
b00000000000000000000000000000001 ?"
#80000000
0!
0$
0b
0z
0-"
07"
#85000000
1!
1$
b00000000000000000000000000010100 '
b00100000000001010000000000000100 (
b00000000000000000000000000010000 )
b00000000100000110010000000100000 *
b00000000000000000000000000010000 ,
b00000000100000110010000000100000 -
b00100 /
b00011 0
b00000000000000000000000000000000 1
b00000000000000000000000000000000 3
b00000000000000000000000000000000 4
b00000000000000000000000000000001 9
b00000000000000000010000000100000 ;
1<
0>
b00001 @
b00010 A
b00100 B
b00000000000000000000000000000011 C
b00000000000000000000000000000010 D
b00000000000000000000000000000011 E
b00011 G
b00000000000000000000000000000011 K
b00000000000000000000000000000010 O
b00010 Q
b01 U
b00010 Y
b00000000000000000000000000000010 Z
b00000000100000110010000000100000 ]
1^
1a
1b
b00010 d
b00000000000000000000000000000010 e
b00100 f
b00011 g
b00000000000000000000000000000000 h
b00000000100000110010000000100000 j
b00010 k
b00100 o
b00011 p
b00001 r
b00010 s
b00011 t
b00010 u
b01 y
1z
b00000000000000000000000000000001 |
b00000000000000000010000000100000 !"
b00000000000000000000000000000011 ""
b00000000000000000000000000000010 #"
0$"
b01 &"
b00000000000000000000000000000011 '"
b00000000000000000000000000000010 ("
b00000000000000000000000000000001 )"
b00000000000000000000000000000010 *"
b00000000000000000000000000000010 +"
b00000000000000000000000000000011 ,"
1-"
b00000000000000000000000000000011 ."
b00000000000000000000000000000011 1"
17"
b00000000000000000000000000000011 9"
b00000000000000000000000000000010 ="
b00000000000000000000000000000010 ?"
#90000000
0!
0$
0b
0z
0-"
07"
#95000000
1!
1$
b00000000000000000000000000011000 '
b00000000100001010010000000100000 (
b00000000000000000000000000010100 )
b00100000000001010000000000000100 *
b00000000000000000000000000010100 ,
b00100000000001010000000000000100 -
b00000 /
b00101 0
b00000000000000000000000000000000 4
05
17
b00000000000000000000000000000000 9
b00100 @
b00011 A
b00000000000000000000000000000110 C
b00000000000000000000000000000011 D
b00000000000000000000000000000010 F
b00100 G
b00000000000000000000000000000010 L
b00000000000000000000000000000011 O
b00011 Q
b10 T
b00011 Y
b00000000000000000000000000000011 Z
b00100000000001010000000000000100 ]
0^
1_
1a
1b
b00011 d
b00000000000000000000000000000011 e
b00000 f
b00101 g
b00100000000001010000000000000100 j
b00011 k
b00000 o
b00101 p
b00100 r
b00011 s
b00100 t
b00011 u
b10 x
b01 y
1z
b00000000000000000000000000000000 |
b00000000000000000000000000000011 #"
b10 %"
b00000000000000000000000000000110 '"
b00000000000000000000000000000011 ("
b00000000000000000000000000000011 )"
b00000000000000000000000000000011 *"
b00000000000000000000000000000011 +"
b00000000000000000000000000000110 ,"
1-"
b00000000000000000000000000000010 /"
b00000000000000000000000000000010 2"
17"
b00000000000000000000000000000010 :"
b00000000000000000000000000000011 ="
b00000000000000000000000000000011 ?"
#100000000
0!
0$
0b
0z
0-"
07"
#105000000
1!
1$
b00000000000000000000000000011100 '
b10101100000001000000000100000000 (
b00000000000000000000000000011000 )
b00000000100001010010000000100000 *
b00000000000000000000000000011000 ,
b00000000100001010010000000100000 -
b00100 /
b00000000000000000000000000000011 3
15
07
b00000000000000000000000000000100 ;
0<
1>
b00000 @
b00101 A
b00000 B
b00000000000000000000000000000100 C
b00000000000000000000000000000000 D
b00000000000000000000000000000110 E
b00000000000000000000000000000011 F
b00000000000000000000000000000110 K
b00000000000000000000000000000011 L
b00100 Q
b00 T
b00 U
b00100 Y
b00000000100001010010000000100000 ]
1^
0_
1a
1b
b00100 d
b00100 f
b00000000100001010010000000100000 j
b00101 k
b00100 o
b00000 r
b00101 s
b00100 u
b00 x
b00 y
1z
b00000000000000000000000000000100 !"
b00000000000000000000000000000110 ""
1$"
b00 %"
b00 &"
b00000000000000000000000000000100 '"
b00000000000000000000000000000000 ("
b00000000000000000000000000000000 )"
b00000000000000000000000000000000 *"
b00000000000000000000000000000100 +"
b00000000000000000000000000000100 ,"
1-"
b00000000000000000000000000000110 ."
b00000000000000000000000000000011 /"
b00000000000000000000000000000110 1"
b00000000000000000000000000000011 2"
17"
b00000000000000000000000000000110 9"
b00000000000000000000000000000011 :"
#110000000
0!
0$
0b
0z
0-"
07"
#115000000
1!
1$
b00000000000000000000000000100000 '
b10001100000001100000000100000000 (
b00000000000000000000000000011100 )
b10101100000001000000000100000000 *
b00000000000000000000000000011100 ,
b10101100000001000000000100000000 -
b00000 /
b00100 0
b00000000000000000000000000000000 1
b00000000000000000000000000000011 2
b00000000000000000000000000000000 3
b00000000000000000000000000000110 4
05
06
17
b00000000000000000000000000000011 9
b00000000000000000010000000100000 ;
1<
0>
b00100 @
b00100 B
b00000000000000000000000000001010 C
b00000000000000000000000000000100 D
b00000000000000000000000000000100 E
b00000000000000000000000000000000 F
b00101 G
b00000000000000000000000000000100 K
b00000000000000000000000000000000 L
b00000000000000000000000000000110 O
b01 T
b10 U
b00000000000000000000000000000110 Z
b10101100000001000000000100000000 ]
0^
1_
0a
1b
b00000000000000000000000000000110 e
b00000 f
b00100 g
b00000000000000000000000000000000 h
b00000000000000000000000000000011 i
b10101100000001000000000100000000 j
b00000 o
b00100 p
b00100 r
b00101 t
b01 x
b10 y
1z
b00000000000000000000000000000011 |
b00000000000000000010000000100000 !"
b00000000000000000000000000000100 ""
b00000000000000000000000000000110 #"
0$"
b01 %"
b10 &"
b00000000000000000000000000001010 '"
b00000000000000000000000000000100 ("
b00000000000000000000000000000110 )"
b00000000000000000000000000000100 *"
b00000000000000000000000000000100 +"
b00000000000000000000000000001010 ,"
1-"
b00000000000000000000000000000100 ."
b00000000000000000000000000000000 /"
b00000000000000000000000000000100 1"
b00000000000000000000000000000000 2"
17"
b00000000000000000000000000000100 9"
b00000000000000000000000000000000 :"
b00000000000000000000000000000110 ="
b00000000000000000000000000000110 ?"
#120000000
0!
0$
0b
0z
0-"
07"
#125000000
1!
1$
b00000000000000000000000000100100 '
b00000000000000000000000000000000 (
b00000000000000000000000000100000 )
b10001100000001100000000100000000 *
b00000000000000000000000000100000 ,
b10001100000001100000000100000000 -
b00110 0
b00000000000000000000000000000000 2
b00000000000000000000000000000000 4
16
18
b00000000000000000000000000000000 9
b00000000000000000000000000000110 :
b00000000000000000000000100000000 ;
0<
0=
1>
b00000 @
b00100 A
b00000 B
b00000000000000000000000100000000 C
b00000000000000000000000000001010 D
b00000000000000000000000000001010 E
b00000000000000000000000000000100 F
b00100 G
b00000000000000000000000000001010 K
b00000000000000000000000000000100 L
b00000000000000000000000000000100 O
b00101 Q
b00 T
b00101 Y
b00000000000000000000000000000100 Z
b10001100000001100000000100000000 ]
1_
1`
1a
1b
b00101 d
b00000000000000000000000000000100 e
b00110 g
b00000000000000000000000000000000 i
b10001100000001100000000100000000 j
b00100 k
b00110 p
b00000 r
b00100 s
b00100 t
b00101 u
b00 x
b10 y
1z
b00000000000000000000000000000000 |
b00000000000000000000000000000110 }
b00000000000000000000000100000000 !"
b00000000000000000000000000001010 ""
b00000000000000000000000000000100 #"
1$"
b00 %"
b00000000000000000000000100000000 '"
b00000000000000000000000000001010 ("
b00000000000000000000000000000000 )"
b00000000000000000000000000001010 *"
b00000000000000000000000100000000 +"
b00000000000000000000000100000000 ,"
1-"
b00000000000000000000000000001010 ."
b00000000000000000000000000000100 /"
b00000000000000000000000000001010 1"
b00000000000000000000000000000100 2"
17"
b00000000000000000000000000001010 9"
b00000000000000000000000000000100 :"
b00000000000000000000000000000100 ="
b00000000000000000000000000000100 ?"
#130000000
0!
0$
0b
0z
0-"
07"
#135000000
1!
1$
b00000000000000000000000000101000 '
b00000000000000000000000000100100 )
b00000000000000000000000000000000 *
b00000000000000000000000000100100 ,
b00000000000000000000000000000000 -
b00000 0
15
07
08
b00000000000000000000000000000000 :
1=
1?
b00110 A
b00000000000000000000000000000000 D
b00000000000000000000000100000000 E
b00000000000000000000000000001010 F
0H
b00000000000000000000000100000000 K
b00000000000000000000000000001010 L
1N
b00000000000000000000000000001010 O
b00100 Q
b00 U
0V
0W
0X
b00100 Y
b00000000000000000000000000001010 Z
b00000000000000000000000000000000 ]
1^
0_
0`
1a
1b
b00100 d
b00000000000000000000000000001010 e
b00000 g
b00000000000000000000000000000000 j
b00110 k
0l
0m
0n
b00000 p
0q
b00110 s
b00100 u
0v
b00 y
1z
b00000000000000000000000000000000 }
b00000000000000000000000100000000 ""
b00000000000000000000000000001010 #"
b00 &"
b00000000000000000000000000000000 ("
b00000000000000000000000000000000 *"
1-"
b00000000000000000000000100000000 ."
b00000000000000000000000000001010 /"
b00000000000000000000000100000000 1"
b00000000000000000000000000001010 2"
13"
17"
18"
b00000000000000000000000100000000 9"
b00000000000000000000000000001010 :"
b00000000000000000000000000001010 ="
b00000000000000000000000000001010 ?"
#140000000
0!
0$
0b
0z
0-"
07"
#145000000
1!
1$
b00000000000000000000000000101100 '
b00000000000000000000000000101000 )
b00000000000000000000000000101000 ,
b00000000000000000000000000000000 ;
1<
0>
0?
b00000 A
b00000000000000000000000000000000 C
b00000000000000000000000000000000 F
b00110 G
1H
1I
b00000000000000000000000000001010 J
b00000000000000000000000000000000 L
b00000000000000000000000000001010 M
0N
b00000000000000000000000100000000 O
0R
b00000000000000000000000100000000 Z
0[
1b
0c
b00000000000000000000000100000000 e
b00000 k
b00000 s
b00110 t
1v
0w
1z
b00000000000000000000000000000000 !"
b00000000000000000000000100000000 #"
0$"
b00000000000000000000000000000000 '"
b00000000000000000000000000000000 +"
b00000000000000000000000000000000 ,"
1-"
b00000000000000000000000000000000 /"
b00000000000000000000000000001010 0"
b00000000000000000000000000000000 2"
03"
b00000000000000000000000000001010 4"
17"
08"
b00000000000000000000000000000000 :"
b00000000000000000000000000001010 ;"
b00000000000000000000000100000000 ="
b00000000000000000000000100000000 ?"
#150000000
0!
0$
0b
0z
0-"
07"
#155000000
1!
1$
b00000000000000000000000000110000 '
b00000000000000000000000000101100 )
b00000000000000000000000000101100 ,
b00000000000000000000000000000000 E
b00000 G
0I
b00000000000000000000000000000000 J
b00000000000000000000000000000000 K
b00000000000000000000000000000000 M
b00000000000000000000000000001010 P
b00110 Q
1R
1S
b00110 Y
b00000000000000000000000000001010 Z
1[
1b
1c
b00110 d
b00000000000000000000000000001010 e
b00000 t
b00110 u
1w
1z
b00000000000000000000000000000000 ""
b00000000000000000000000000001010 #"
1-"
b00000000000000000000000000000000 ."
b00000000000000000000000000000000 0"
b00000000000000000000000000000000 1"
b00000000000000000000000000000000 4"
17"
b00000000000000000000000000000000 9"
b00000000000000000000000000000000 ;"
1<"
b00000000000000000000000000001010 >"
b00000000000000000000000000001010 ?"
#160000000
0!
0$
0b
0z
0-"
07"
#165000000
1!
b00000000000000000000000000001010 #
1$
b00000000000000000000000000001010 &
b00000000000000000000000000110100 '
b00000000000000000000000000110000 )
b00000000000000000000000000110000 ,
b00000000000000000000000000000000 O
b00000000000000000000000000000000 P
b00000 Q
0S
b00000 Y
b00000000000000000000000000000000 Z
b00000000000000000000000000001010 \
1b
b00000 d
b00000000000000000000000000000000 e
b00000 u
1z
b00000000000000000000000000000000 #"
1-"
17"
0<"
b00000000000000000000000000000000 ="
b00000000000000000000000000000000 >"
b00000000000000000000000000000000 ?"
#170000000
0!
0$
0b
0z
0-"
07"
#175000000
1!
1$
b00000000000000000000000000111000 '
b00000000000000000000000000110100 )
b00000000000000000000000000110100 ,
1b
1z
1-"
17"
#180000000
0!
0$
0b
0z
0-"
07"
#185000000
1!
1$
b00000000000000000000000000111100 '
b00000000000000000000000000111000 )
b00000000000000000000000000111000 ,
1b
1z
1-"
17"
#190000000
0!
0$
0b
0z
0-"
07"
#195000000
1!
1$
b00000000000000000000000001000000 '
b00000000000000000000000000111100 )
b00000000000000000000000000111100 ,
1b
1z
1-"
17"
#200000000
0!
0$
0b
0z
0-"
07"
#205000000
1!
1$
b00000000000000000000000001000100 '
b00000000000000000000000001000000 )
b00000000000000000000000001000000 ,
1b
1z
1-"
17"
#210000000
0!
0$
0b
0z
0-"
07"
#215000000
1!
1$
b00000000000000000000000001001000 '
b00000000000000000000000001000100 )
b00000000000000000000000001000100 ,
1b
1z
1-"
17"
#220000000
0!
0$
0b
0z
0-"
07"
#225000000
1!
1$
b00000000000000000000000001001100 '
b00000000000000000000000001001000 )
b00000000000000000000000001001000 ,
1b
1z
1-"
17"
#230000000
0!
0$
0b
0z
0-"
07"
#235000000
1!
1$
b00000000000000000000000001010000 '
b00000000000000000000000001001100 )
b00000000000000000000000001001100 ,
1b
1z
1-"
17"
#240000000
0!
0$
0b
0z
0-"
07"
#245000000
1!
1$
b00000000000000000000000001010100 '
b00000000000000000000000001010000 )
b00000000000000000000000001010000 ,
1b
1z
1-"
17"
#250000000
0!
0$
0b
0z
0-"
07"
#255000000
1!
1$
b00000000000000000000000001011000 '
b00000000000000000000000001010100 )
b00000000000000000000000001010100 ,
1b
1z
1-"
17"
#260000000
0!
0$
0b
0z
0-"
07"
#265000000
1!
1$
b00000000000000000000000001011100 '
b00000000000000000000000001011000 )
b00000000000000000000000001011000 ,
1b
1z
1-"
17"
#270000000
0!
0$
0b
0z
0-"
07"
#275000000
1!
1$
b00000000000000000000000001100000 '
b00000000000000000000000001011100 )
b00000000000000000000000001011100 ,
1b
1z
1-"
17"
#280000000
0!
0$
0b
0z
0-"
07"
#285000000
1!
1$
b00000000000000000000000001100100 '
b00000000000000000000000001100000 )
b00000000000000000000000001100000 ,
1b
1z
1-"
17"
#290000000
0!
0$
0b
0z
0-"
07"
#295000000
1!
1$
b00000000000000000000000001101000 '
b00000000000000000000000001100100 )
b00000000000000000000000001100100 ,
1b
1z
1-"
17"
#300000000
0!
0$
0b
0z
0-"
07"
#305000000
1!
1$
b00000000000000000000000001101100 '
b00000000000000000000000001101000 )
b00000000000000000000000001101000 ,
1b
1z
1-"
17"
#310000000
0!
0$
0b
0z
0-"
07"
#315000000
1!
1$
b00000000000000000000000001110000 '
b00000000000000000000000001101100 )
b00000000000000000000000001101100 ,
1b
1z
1-"
17"
#320000000
0!
0$
0b
0z
0-"
07"
#325000000
1!
1$
b00000000000000000000000001110100 '
b00000000000000000000000001110000 )
b00000000000000000000000001110000 ,
1b
1z
1-"
17"
#330000000
0!
0$
0b
0z
0-"
07"
#335000000
1!
1$
b00000000000000000000000001111000 '
b00000000000000000000000001110100 )
b00000000000000000000000001110100 ,
1b
1z
1-"
17"
#340000000
0!
0$
0b
0z
0-"
07"
#345000000
1!
1$
b00000000000000000000000001111100 '
b00000000000000000000000001111000 )
b00000000000000000000000001111000 ,
1b
1z
1-"
17"
#350000000
0!
0$
0b
0z
0-"
07"
#355000000
1!
1$
b00000000000000000000000010000000 '
b00000000000000000000000001111100 )
b00000000000000000000000001111100 ,
1b
1z
1-"
17"
#360000000
0!
0$
0b
0z
0-"
07"
#365000000
1!
1$
b00000000000000000000000010000100 '
b00000000000000000000000010000000 )
b00000000000000000000000010000000 ,
1b
1z
1-"
17"
#370000000
0!
0$
0b
0z
0-"
07"
#375000000
1!
1$
b00000000000000000000000010001000 '
b00000000000000000000000010000100 )
b00000000000000000000000010000100 ,
1b
1z
1-"
17"
#380000000
0!
0$
0b
0z
0-"
07"
#385000000
1!
1$
b00000000000000000000000010001100 '
b00000000000000000000000010001000 )
b00000000000000000000000010001000 ,
1b
1z
1-"
17"
#390000000
0!
0$
0b
0z
0-"
07"
#395000000
1!
1$
b00000000000000000000000010010000 '
b00000000000000000000000010001100 )
b00000000000000000000000010001100 ,
1b
1z
1-"
17"
#400000000
0!
0$
0b
0z
0-"
07"
